{
  "code": 200,
  "message": "success",
  "data": {
    "items": [
      {
        "id": 32,
        "serial_number": "BATCH_TEST_1771774313_0",
        "model": "Batch Model 0",
        "android_version": "11",
        "resolution": null,
        "battery": 95,
        "status": "online",
        "group_name": null,
        "cpu_usage": 23.1772309799388,
        "memory_usage": 78.75113334902356,
        "last_connected_at": null,
        "created_at": "2026-02-22T23:31:55.381804",
        "updated_at": "2026-02-26T01:06:36.098395"
      },
      {
        "id": 10,
        "serial_number": "TEST_1771766114",
        "model": "Test Device Model",
        "android_version": "12",
        "resolution": null,
        "battery": 35,
        "status": "offline",
        "group_name": "测试组",
        "cpu_usage": 39.14572032092921,
        "memory_usage": 43.9135848488406,
        "last_connected_at": null,
        "created_at": "2026-02-22T21:15:16.169609",
        "updated_at": "2026-02-24T00:38:33.087671"
      },
      {
        "id": 9,
        "serial_number": "TEST_1771766112",
        "model": "Test Device Model",
        "android_version": "12",
        "resolution": null,
        "battery": 65,
        "status": "offline",
        "group_name": "测试组",
        "cpu_usage": 47.11470635134293,
        "memory_usage": 58.28897354983857,
        "last_connected_at": null,
        "created_at": "2026-02-22T21:15:14.108164",
        "updated_at": "2026-02-24T00:34:33.649369"
      },
      {
        "id": 8,
        "serial_number": "TEST_1771766110",
        "model": "Test Device Model",
        "android_version": "12",
        "resolution": null,
        "battery": 52,
        "status": "offline",
        "group_name": "测试组",
        "cpu_usage": 56.919215576949,
        "memory_usage": 42.93599652967481,
        "last_connected_at": null,
        "created_at": "2026-02-22T21:15:12.047384",
        "updated_at": "2026-02-24T00:29:59.375819"
      },
      {
        "id": 7,
        "serial_number": "TEST_1771766105",
        "model": "Test Device Model",
        "android_version": "12",
        "resolution": null,
        "battery": 60,
        "status": "offline",
        "group_name": "测试组",
        "cpu_usage": 10.950650220479812,
        "memory_usage": 44.902743728873624,
        "last_connected_at": null,
        "created_at": "2026-02-22T21:15:07.611624",
        "updated_at": "2026-02-24T00:23:31.708128"
      },
      {
        "id": 6,
        "serial_number": "CONSISTENCY_TEST_1771766101_0",
        "model": "Test Device Model",
        "android_version": "12",
        "resolution": null,
        "battery": 32,
        "status": "offline",
        "group_name": "测试组",
        "cpu_usage": 79.52168230706266,
        "memory_usage": 57.080529486864066,
        "last_connected_at": null,
        "created_at": "2026-02-22T21:15:03.457800",
        "updated_at": "2026-02-24T00:22:29.520300"
      },
      {
        "id": 5,
        "serial_number": "TEST_1771766097",
        "model": "Test Device Model",
        "android_version": "12",
        "resolution": null,
        "battery": 31,
        "status": "offline",
        "group_name": "测试组",
        "cpu_usage": 62.56240075340246,
        "memory_usage": 51.87409489490899,
        "last_connected_at": null,
        "created_at": "2026-02-22T21:14:59.087413",
        "updated_at": "2026-02-24T00:20:52.482631"
      },
      {
        "id": 199,
        "serial_number": "TEST_DEVICE_1771858655",
        "model": "Test Model",
        "android_version": "11",
        "resolution": null,
        "battery": 75,
        "status": "online",
        "group_name": "测试组",
        "cpu_usage": 31.232069959831954,
        "memory_usage": 44.87820463964374,
        "last_connected_at": null,
        "created_at": "2026-02-23T22:57:37.316719",
        "updated_at": "2026-02-23T22:57:37.316719"
      },
      {
        "id": 198,
        "serial_number": "CONCURRENT_1771858642_3",
        "model": "Concurrent Model 3",
        "android_version": "11",
        "resolution": null,
        "battery": 94,
        "status": "online",
        "group_name": null,
        "cpu_usage": 44.91909573414001,
        "memory_usage": 34.12516672961428,
        "last_connected_at": null,
        "created_at": "2026-02-23T22:57:24.955179",
        "updated_at": "2026-02-23T22:57:24.955179"
      },
      {
        "id": 197,
        "serial_number": "CONCURRENT_1771858642_0",
        "model": "Concurrent Model 0",
        "android_version": "11",
        "resolution": null,
        "battery": 81,
        "status": "online",
        "group_name": null,
        "cpu_usage": 36.754337226700876,
        "memory_usage": 31.40935364819561,
        "last_connected_at": null,
        "created_at": "2026-02-23T22:57:24.938634",
        "updated_at": "2026-02-23T22:57:24.938634"
      },
      {
        "id": 196,
        "serial_number": "CONCURRENT_1771858642_2",
        "model": "Concurrent Model 2",
        "android_version": "11",
        "resolution": null,
        "battery": 60,
        "status": "online",
        "group_name": null,
        "cpu_usage": 74.89413164608801,
        "memory_usage": 61.092781728605644,
        "last_connected_at": null,
        "created_at": "2026-02-23T22:57:24.922080",
        "updated_at": "2026-02-23T22:57:24.922080"
      },
      {
        "id": 195,
        "serial_number": "CONCURRENT_1771858642_1",
        "model": "Concurrent Model 1",
        "android_version": "11",
        "resolution": null,
        "battery": 29,
        "status": "online",
        "group_name": null,
        "cpu_usage": 49.19161657271606,
        "memory_usage": 63.43477294445894,
        "last_connected_at": null,
        "created_at": "2026-02-23T22:57:24.905019",
        "updated_at": "2026-02-23T22:57:24.905019"
      },
      {
        "id": 194,
        "serial_number": "CONCURRENT_1771858642_4",
        "model": "Concurrent Model 4",
        "android_version": "11",
        "resolution": null,
        "battery": 96,
        "status": "online",
        "group_name": null,
        "cpu_usage": 44.82099812468892,
        "memory_usage": 54.3010561157744,
        "last_connected_at": null,
        "created_at": "2026-02-23T22:57:24.887474",
        "updated_at": "2026-02-23T22:57:24.887474"
      },
      {
        "id": 193,
        "serial_number": "BATCH_TEST_1771858624_2",
        "model": "Batch Model 2",
        "android_version": "11",
        "resolution": null,
        "battery": 52,
        "status": "online",
        "group_name": null,
        "cpu_usage": 48.42729365433401,
        "memory_usage": 46.799591084377575,
        "last_connected_at": null,
        "created_at": "2026-02-23T22:57:06.351486",
        "updated_at": "2026-02-23T22:57:06.351486"
      },
      {
        "id": 192,
        "serial_number": "BATCH_TEST_1771858622_1",
        "model": "Batch Model 1",
        "android_version": "11",
        "resolution": null,
        "battery": 43,
        "status": "online",
        "group_name": null,
        "cpu_usage": 70.54911945574295,
        "memory_usage": 34.694393727167565,
        "last_connected_at": null,
        "created_at": "2026-02-23T22:57:04.281461",
        "updated_at": "2026-02-23T22:57:04.281461"
      },
      {
        "id": 191,
        "serial_number": "BATCH_TEST_1771858620_0",
        "model": "Batch Model 0",
        "android_version": "11",
        "resolution": null,
        "battery": 44,
        "status": "online",
        "group_name": null,
        "cpu_usage": 10.669853663349189,
        "memory_usage": 39.18571820390213,
        "last_connected_at": null,
        "created_at": "2026-02-23T22:57:02.224949",
        "updated_at": "2026-02-23T22:57:02.224949"
      },
      {
        "id": 190,
        "serial_number": "TEST_DEVICE_1771858605",
        "model": "Test Model",
        "android_version": "11",
        "resolution": null,
        "battery": 24,
        "status": "online",
        "group_name": "测试组",
        "cpu_usage": 20.64257991801259,
        "memory_usage": 69.74105988134153,
        "last_connected_at": null,
        "created_at": "2026-02-23T22:56:49.699140",
        "updated_at": "2026-02-23T22:56:49.699140"
      },
      {
        "id": 189,
        "serial_number": "TEST_DEVICE_1771858571",
        "model": "Test Model",
        "android_version": "11",
        "resolution": null,
        "battery": 53,
        "status": "online",
        "group_name": "测试组",
        "cpu_usage": 50.912245314400906,
        "memory_usage": 31.879958886800942,
        "last_connected_at": null,
        "created_at": "2026-02-23T22:56:13.760838",
        "updated_at": "2026-02-23T22:56:13.760838"
      },
      {
        "id": 188,
        "serial_number": "TEST_DEVICE_1771858536",
        "model": "Test Model",
        "android_version": "11",
        "resolution": null,
        "battery": 25,
        "status": "online",
        "group_name": "测试组",
        "cpu_usage": 74.75874133372079,
        "memory_usage": 39.31407424891521,
        "last_connected_at": null,
        "created_at": "2026-02-23T22:55:38.805311",
        "updated_at": "2026-02-23T22:55:38.805311"
      },
      {
        "id": 187,
        "serial_number": "TEST_DEVICE_1771858532",
        "model": "Test Model",
        "android_version": "11",
        "resolution": null,
        "battery": 76,
        "status": "online",
        "group_name": "测试组",
        "cpu_usage": 23.783962154115372,
        "memory_usage": 54.15149338157178,
        "last_connected_at": null,
        "created_at": "2026-02-23T22:55:34.688480",
        "updated_at": "2026-02-23T22:55:34.688480"
      }
    ],
    "total": 193,
    "page": 1,
    "page_size": 20,
    "total_pages": 10
  }
}