{
  "code": 200,
  "message": "success",
  "data": {
    "items": [
      {
        "id": 1,
        "serial_number": "ABC123456789",
        "model": "Xiaomi 12 Pro",
        "android_version": "13",
        "resolution": "1440x3200",
        "battery": 85,
        "status": "offline",
        "group_name": null,
        "cpu_usage": 0.0,
        "memory_usage": 0.0,
        "last_connected_at": "2026-02-16T22:17:28.100840",
        "created_at": "2026-02-16T22:17:28.100840",
        "updated_at": "2026-02-24T00:38:33.142279"
      },
      {
        "id": 10,
        "serial_number": "TEST_1771766114",
        "model": "Test Device Model",
        "android_version": "12",
        "resolution": null,
        "battery": 35,
        "status": "offline",
        "group_name": "测试组",
        "cpu_usage": 39.14572032092921,
        "memory_usage": 43.9135848488406,
        "last_connected_at": null,
        "created_at": "2026-02-22T21:15:16.169609",
        "updated_at": "2026-02-24T00:38:33.087671"
      },
      {
        "id": 33,
        "serial_number": "BATCH_TEST_1771774315_1",
        "model": "Batch Model 1",
        "android_version": "11",
        "resolution": null,
        "battery": 63,
        "status": "online",
        "group_name": null,
        "cpu_usage": 29.908812210828014,
        "memory_usage": 30.97103964761938,
        "last_connected_at": null,
        "created_at": "2026-02-22T23:31:57.434066",
        "updated_at": "2026-02-24T00:38:31.903901"
      },
      {
        "id": 32,
        "serial_number": "BATCH_TEST_1771774313_0",
        "model": "Batch Model 0",
        "android_version": "11",
        "resolution": null,
        "battery": 40,
        "status": "online",
        "group_name": null,
        "cpu_usage": 71.52757814738979,
        "memory_usage": 37.37088020272761,
        "last_connected_at": null,
        "created_at": "2026-02-22T23:31:55.381804",
        "updated_at": "2026-02-24T00:38:31.891902"
      },
      {
        "id": 9,
        "serial_number": "TEST_1771766112",
        "model": "Test Device Model",
        "android_version": "12",
        "resolution": null,
        "battery": 65,
        "status": "offline",
        "group_name": "测试组",
        "cpu_usage": 47.11470635134293,
        "memory_usage": 58.28897354983857,
        "last_connected_at": null,
        "created_at": "2026-02-22T21:15:14.108164",
        "updated_at": "2026-02-24T00:34:33.649369"
      },
      {
        "id": 8,
        "serial_number": "TEST_1771766110",
        "model": "Test Device Model",
        "android_version": "12",
        "resolution": null,
        "battery": 52,
        "status": "offline",
        "group_name": "测试组",
        "cpu_usage": 56.919215576949,
        "memory_usage": 42.93599652967481,
        "last_connected_at": null,
        "created_at": "2026-02-22T21:15:12.047384",
        "updated_at": "2026-02-24T00:29:59.375819"
      },
      {
        "id": 7,
        "serial_number": "TEST_1771766105",
        "model": "Test Device Model",
        "android_version": "12",
        "resolution": null,
        "battery": 60,
        "status": "offline",
        "group_name": "测试组",
        "cpu_usage": 10.950650220479812,
        "memory_usage": 44.902743728873624,
        "last_connected_at": null,
        "created_at": "2026-02-22T21:15:07.611624",
        "updated_at": "2026-02-24T00:23:31.708128"
      },
      {
        "id": 6,
        "serial_number": "CONSISTENCY_TEST_1771766101_0",
        "model": "Test Device Model",
        "android_version": "12",
        "resolution": null,
        "battery": 32,
        "status": "offline",
        "group_name": "测试组",
        "cpu_usage": 79.52168230706266,
        "memory_usage": 57.080529486864066,
        "last_connected_at": null,
        "created_at": "2026-02-22T21:15:03.457800",
        "updated_at": "2026-02-24T00:22:29.520300"
      },
      {
        "id": 5,
        "serial_number": "TEST_1771766097",
        "model": "Test Device Model",
        "android_version": "12",
        "resolution": null,
        "battery": 31,
        "status": "offline",
        "group_name": "测试组",
        "cpu_usage": 62.56240075340246,
        "memory_usage": 51.87409489490899,
        "last_connected_at": null,
        "created_at": "2026-02-22T21:14:59.087413",
        "updated_at": "2026-02-24T00:20:52.482631"
      },
      {
        "id": 199,
        "serial_number": "TEST_DEVICE_1771858655",
        "model": "Test Model",
        "android_version": "11",
        "resolution": null,
        "battery": 84,
        "status": "online",
        "group_name": "测试组",
        "cpu_usage": 38.17610717022519,
        "memory_usage": 47.15801869071195,
        "last_connected_at": null,
        "created_at": "2026-02-23T22:57:37.316719",
        "updated_at": "2026-02-23T22:57:37.316719"
      }
    ],
    "total": 197,
    "page": 1,
    "page_size": 10,
    "total_pages": 20
  }
}